<svg width="17" height="16" viewBox="0 0 17 16" fill="none" xmlns="http://www.w3.org/2000/svg">
<path d="M0.33387 0L4.69211 4.35899H11.8417V11.5082L16.2 15.8667V0H0.33387Z" fill="#212529"/>
<path d="M0.199951 9.71933L4.687 5.23245V11.5133H10.9667L6.47995 16.0002H0.199951V9.71933Z" fill="#212529"/>
</svg>
