<svg width="16" height="16" viewBox="0 0 16 16" fill="none" xmlns="http://www.w3.org/2000/svg">
<path fill-rule="evenodd" clip-rule="evenodd" d="M1 11.5C1 11.7761 1.22386 12 1.5 12H13.2929L10.1464 15.1464C9.95118 15.3417 9.95118 15.6583 10.1464 15.8536C10.3417 16.0488 10.6583 16.0488 10.8536 15.8536L14.8536 11.8536C15.0488 11.6583 15.0488 11.3417 14.8536 11.1464L10.8536 7.14645C10.6583 6.95118 10.3417 6.95118 10.1464 7.14645C9.95118 7.34171 9.95118 7.65829 10.1464 7.85355L13.2929 11H1.5C1.22386 11 1 11.2239 1 11.5Z" fill="#212529"/>
<path fill-rule="evenodd" clip-rule="evenodd" d="M15 4.5C15 4.77614 14.7761 5 14.5 5H2.70711L5.85355 8.14645C6.04882 8.34171 6.04882 8.65829 5.85355 8.85355C5.65829 9.04882 5.34171 9.04882 5.14645 8.85355L1.14645 4.85355C0.951185 4.65829 0.951185 4.34171 1.14645 4.14645L5.14645 0.146447C5.34171 -0.0488155 5.65829 -0.0488155 5.85355 0.146447C6.04882 0.341709 6.04882 0.658292 5.85355 0.853554L2.70711 4H14.5C14.7761 4 15 4.22386 15 4.5Z" fill="#212529"/>
</svg>
