<svg width="16" height="16" viewBox="0 0 16 16" fill="none" xmlns="http://www.w3.org/2000/svg">
<path d="M10.1567 5.96828H9.31299V10.0288H10.1567C11.2729 10.0288 11.7783 9.36086 11.7783 8.00735C11.7783 6.65383 11.2686 5.96828 10.1567 5.96828Z" fill="#212529"/>
<path d="M0 4C0 2.89543 0.895431 2 2 2H14C15.1046 2 16 2.89543 16 4V12C16 13.1046 15.1046 14 14 14H2C0.895431 14 0 13.1046 0 12V4ZM5.18408 8.3677C5.83008 8.3677 6.23877 8.74563 6.24316 9.26858C6.25195 9.80471 5.81689 10.187 5.15771 10.187C4.56006 10.1826 4.12061 9.86184 4.08984 9.43117H3C3.03076 10.3452 3.79102 11.1187 5.15332 11.1187C6.39258 11.1187 7.43848 10.4595 7.42529 9.32131C7.41211 8.3677 6.67822 7.94143 6.1333 7.88869V7.82717C6.57275 7.75686 7.2583 7.29983 7.24072 6.45168C7.22754 5.54641 6.44092 4.88283 5.18848 4.88723C3.87891 4.89162 3.14502 5.62112 3.11426 6.55715H4.21729C4.23926 6.16604 4.59961 5.80569 5.15332 5.80569C5.68506 5.80569 6.08057 6.13528 6.08057 6.61867C6.08496 7.09768 5.69824 7.45364 5.15332 7.45364H4.52051V8.3677H5.18408ZM8.12646 11H10.3149C12.1255 11 13 9.8926 13 7.98537C13 6.09133 12.1387 5.00149 10.3149 5.00149H8.12646V11Z" fill="#212529"/>
</svg>
