<svg width="16" height="16" viewBox="0 0 16 16" fill="none" xmlns="http://www.w3.org/2000/svg">
<path d="M10.3481 7.64258C10.3481 6.53076 10.8359 5.88916 11.6665 5.88916C12.3477 5.88916 12.8047 6.35938 12.853 6.99658H14V6.88672C13.9473 5.7002 12.9761 4.88721 11.6577 4.88721C10.0537 4.88721 9.13965 5.9375 9.13965 7.63818V8.38525C9.13965 10.0859 10.0449 11.1143 11.6577 11.1143C12.9717 11.1143 13.9429 10.3232 14 9.17627V9.06201H12.853C12.8047 9.67725 12.3564 10.1123 11.6665 10.1123C10.8271 10.1123 10.3481 9.49268 10.3481 8.38525V7.64258Z" fill="#212529"/>
<path d="M4.45706 11L5.47781 6.81641H5.52219L6.54294 11H7.54755L9 5.00146H7.81787L6.99885 9.35645H6.94236L5.97003 5.00146H5.02997L4.05764 9.35645H4.00519L3.1781 5.00146H2L3.45245 11H4.45706Z" fill="#212529"/>
<path d="M14 3C14.5523 3 15 3.44772 15 4V12C15 12.5523 14.5523 13 14 13H2C1.44772 13 1 12.5523 1 12V4C1 3.44772 1.44772 3 2 3H14ZM2 2C0.895431 2 0 2.89543 0 4V12C0 13.1046 0.895431 14 2 14H14C15.1046 14 16 13.1046 16 12V4C16 2.89543 15.1046 2 14 2H2Z" fill="#212529"/>
</svg>
