<svg width="16" height="16" viewBox="0 0 16 16" fill="none" xmlns="http://www.w3.org/2000/svg">
<path d="M3.69971 11L4.16992 9.45752H6.17383L6.64404 11H7.90527L5.90137 5.00146H4.5127L2.5 11H3.69971ZM5.20264 6.14844L5.93652 8.57422H4.41602L5.1499 6.14844H5.20264Z" fill="#212529"/>
<path d="M9.96227 6.27588C8.90318 6.27588 8.20885 7.04053 8.20885 8.31934V9.01367C8.20885 10.2925 8.89439 11.0571 9.94908 11.0571C10.6258 11.0571 11.1708 10.7275 11.3158 10.2529H11.3729V11H12.5111V4.68506H11.3509V7.04492H11.2982C11.118 6.57031 10.6171 6.27588 9.96227 6.27588ZM10.349 7.19873C10.9291 7.19873 11.3509 7.63818 11.3509 8.33691V8.93896C11.3509 9.69922 10.9554 10.1387 10.3666 10.1387C9.76891 10.1387 9.39537 9.69043 9.39537 8.89062V8.43799C9.39537 7.64258 9.76451 7.19873 10.349 7.19873Z" fill="#212529"/>
<path d="M14 3C14.5523 3 15 3.44772 15 4V12C15 12.5523 14.5523 13 14 13H2C1.44772 13 1 12.5523 1 12V4C1 3.44772 1.44772 3 2 3H14ZM2 2C0.895431 2 0 2.89543 0 4V12C0 13.1046 0.895431 14 2 14H14C15.1046 14 16 13.1046 16 12V4C16 2.89543 15.1046 2 14 2H2Z" fill="#212529"/>
</svg>
