<svg width="16" height="16" viewBox="0 0 16 16" fill="none" xmlns="http://www.w3.org/2000/svg">
<path d="M11 2C11 1.44772 11.4477 1 12 1H14C14.5523 1 15 1.44772 15 2V14H15.5C15.7761 14 16 14.2239 16 14.5C16 14.7761 15.7761 15 15.5 15H0.5C0.223858 15 0 14.7761 0 14.5C0 14.2239 0.223858 14 0.5 14H1V11C1 10.4477 1.44772 10 2 10H4C4.55228 10 5 10.4477 5 11V14H6V7C6 6.44772 6.44772 6 7 6H9C9.55228 6 10 6.44772 10 7V14H11V2ZM12 14H14V2H12V14ZM9 14V7H7V14H9ZM4 14V11H2V14H4Z" fill="#212529"/>
</svg>
