<svg width="16" height="16" viewBox="0 0 16 16" fill="none" xmlns="http://www.w3.org/2000/svg">
<path d="M4 10C4 9.44773 4.44772 9.00001 5 9.00001C5.55228 9.00001 6 9.44773 6 10V12C6 12.5523 5.55228 13 5 13C4.44772 13 4 12.5523 4 12V10Z" fill="#212529"/>
<path d="M7 10C7 9.44773 7.44772 9.00001 8 9.00001C8.55228 9.00001 9 9.44773 9 10V12C9 12.5523 8.55228 13 8 13C7.44772 13 7 12.5523 7 12V10Z" fill="#212529"/>
<path d="M10 10C10 9.44773 10.4477 9.00001 11 9.00001C11.5523 9.00001 12 9.44773 12 10V12C12 12.5523 11.5523 13 11 13C10.4477 13 10 12.5523 10 12V10Z" fill="#212529"/>
<path d="M5.75725 1.07127C5.99404 1.21334 6.07082 1.52047 5.92875 1.75726L3.3831 6.00001H12.6169L10.0713 1.75726C9.92918 1.52047 10.006 1.21334 10.2428 1.07127C10.4795 0.929194 10.7867 1.00598 10.9287 1.24277L13.7831 6.00001H15.5C15.7761 6.00001 16 6.22387 16 6.50001V7.50001C16 7.77616 15.7761 8.00001 15.5 8.00001H14.8772L13.0326 14.4561C12.9406 14.778 12.6463 15 12.3114 15H3.68858C3.35372 15 3.05943 14.778 2.96743 14.4561L1.12285 8.00001H0.5C0.223858 8.00001 0 7.77616 0 7.50001V6.50001C0 6.22387 0.223858 6.00001 0.5 6.00001H2.2169L5.07125 1.24277C5.21333 1.00598 5.52046 0.929194 5.75725 1.07127ZM2.16287 8.00001L3.87715 14H12.1228L13.8371 8.00001H2.16287Z" fill="#212529"/>
</svg>
