<svg width="16" height="16" viewBox="0 0 16 16" fill="none" xmlns="http://www.w3.org/2000/svg">
<path d="M0 0H16V16H0V0ZM1 1V7.5H7.5V1H1ZM8.5 1V7.5H15V1H8.5ZM15 8.5H8.5V15H15V8.5ZM7.5 15V8.5H1V15H7.5Z" fill="#212529"/>
</svg>
