<svg width="16" height="16" viewBox="0 0 16 16" fill="none" xmlns="http://www.w3.org/2000/svg">
<path d="M2 1C1.44772 1 1 1.44772 1 2C1 2.55228 1.44772 3 2 3C2.55228 3 3 2.55228 3 2C3 1.44772 2.55228 1 2 1ZM0 2C0 0.89543 0.89543 0 2 0C2.93192 0 3.71497 0.637386 3.93699 1.5H12.063C12.285 0.637386 13.0681 0 14 0C15.1046 0 16 0.89543 16 2C16 2.93192 15.3626 3.71497 14.5 3.93699V12.063C15.3626 12.285 16 13.0681 16 14C16 15.1046 15.1046 16 14 16C13.0681 16 12.285 15.3626 12.063 14.5H3.93699C3.71497 15.3626 2.93192 16 2 16C0.89543 16 0 15.1046 0 14C0 13.0681 0.637386 12.285 1.5 12.063V3.93699C0.637386 3.71497 0 2.93192 0 2ZM2.5 3.93699V12.063C3.2028 12.2439 3.7561 12.7972 3.93699 13.5H12.063C12.2439 12.7972 12.7972 12.2439 13.5 12.063V3.93699C12.7972 3.7561 12.2439 3.2028 12.063 2.5H3.93699C3.7561 3.2028 3.2028 3.7561 2.5 3.93699ZM14 1C13.4477 1 13 1.44772 13 2C13 2.55228 13.4477 3 14 3C14.5523 3 15 2.55228 15 2C15 1.44772 14.5523 1 14 1ZM2 13C1.44772 13 1 13.4477 1 14C1 14.5523 1.44772 15 2 15C2.55228 15 3 14.5523 3 14C3 13.4477 2.55228 13 2 13ZM14 13C13.4477 13 13 13.4477 13 14C13 14.5523 13.4477 15 14 15C14.5523 15 15 14.5523 15 14C15 13.4477 14.5523 13 14 13Z" fill="#212529"/>
</svg>
