<svg width="16" height="16" viewBox="0 0 16 16" fill="none" xmlns="http://www.w3.org/2000/svg">
<path d="M2 0C0.895431 0 0 0.895431 0 2H16C16 0.895431 15.1046 0 14 0H2Z" fill="#212529"/>
<path fill-rule="evenodd" clip-rule="evenodd" d="M0 14V3H16V14C16 15.1046 15.1046 16 14 16H2C0.895431 16 0 15.1046 0 14ZM12 6C12 6.55228 12.4477 7 13 7C13.5523 7 14 6.55228 14 6C14 5.44772 13.5523 5 13 5C12.4477 5 12 5.44772 12 6Z" fill="#212529"/>
</svg>
