<svg width="16" height="16" viewBox="0 0 16 16" fill="none" xmlns="http://www.w3.org/2000/svg">
<path d="M1.82831 8.8995L8.89938 1.82843C10.4615 0.266336 12.9941 0.266336 14.5562 1.82843C16.1183 3.39053 16.1183 5.92319 14.5562 7.48529L7.48516 14.5564C5.92307 16.1185 3.39041 16.1185 1.82831 14.5564C0.266214 12.9943 0.266214 10.4616 1.82831 8.8995ZM10.9561 9.6712L13.8491 6.77818C15.0207 5.60661 15.0207 3.70711 13.8491 2.53554C12.6776 1.36397 10.7781 1.36397 9.60649 2.53554L6.71347 5.42856L10.9561 9.6712Z" fill="#212529"/>
</svg>
