<svg width="16" height="16" viewBox="0 0 16 16" fill="none" xmlns="http://www.w3.org/2000/svg">
<path d="M16 7.5C16 8.50835 15.4034 9.37641 14.5443 9.77192C14.3699 9.46522 14.1504 9.18745 13.8949 8.94761C14.532 8.77437 15 8.19122 15 7.5C15 6.67157 14.3284 6 13.5 6C13.3626 6 13.2303 6.01834 13.1051 6.05241C12.965 6.09049 12.8154 6.06587 12.695 5.98494C12.5745 5.90401 12.4952 5.77476 12.4776 5.63074C12.2959 4.14831 11.0317 3 9.5 3C8.60862 3 7.80805 3.38876 7.25856 4.00597C7.17287 4.002 7.08667 4 7 4C6.65228 4 6.31217 4.03225 5.98248 4.0939C6.65975 2.84671 7.981 2 9.5 2C11.3651 2 12.9315 3.27615 13.3747 5.0031C13.4162 5.00104 13.458 5 13.5 5C14.8807 5 16 6.11929 16 7.5Z" fill="#212529"/>
<path d="M7 5C9.31633 5 11.2239 6.7501 11.4726 9.00015L11.5 9C12.8807 9 14 10.1193 14 11.5C14 12.8807 12.8807 14 11.5 14H3C1.34315 14 0 12.6569 0 11C0 9.42642 1.21152 8.13582 2.75267 8.01005C3.36759 6.25725 5.03642 5 7 5ZM10.5 9.5C10.5 7.567 8.933 6 7 6C5.36885 6 3.99717 7.11628 3.60954 8.62733C3.55053 8.85739 3.33781 9.01418 3.10059 9.00248C3.06728 9.00083 3.03375 9 3 9C1.89543 9 1 9.89543 1 11C1 12.1046 1.89543 13 3 13H11.5C12.3284 13 13 12.3284 13 11.5C13 10.6716 12.3284 10 11.5 10C11.3696 10 11.2438 10.0165 11.1243 10.0473C10.9732 10.0862 10.8127 10.0524 10.6902 9.95596C10.5676 9.85947 10.4972 9.71134 10.4996 9.5554C10.4999 9.53697 10.5 9.5185 10.5 9.5Z" fill="#212529"/>
</svg>
