<svg width="16" height="16" viewBox="0 0 16 16" fill="none" xmlns="http://www.w3.org/2000/svg">
<path d="M7.02986 1.88057C7.28235 0.870619 8.71766 0.870621 8.97015 1.88057L11.875 13.5H14C14.2761 13.5 14.5 13.7239 14.5 14C14.5 14.2761 14.2761 14.5 14 14.5H2C1.72386 14.5 1.5 14.2761 1.5 14C1.5 13.7239 1.72386 13.5 2 13.5H4.125L7.02986 1.88057Z" fill="#212529"/>
</svg>
