<svg width="16" height="16" viewBox="0 0 16 16" fill="none" xmlns="http://www.w3.org/2000/svg">
<path d="M13.9999 4.5V11H12.9999V4.5H10.9999C10.1715 4.5 9.49994 3.82843 9.49994 3V1H3.99994C3.44765 1 2.99994 1.44772 2.99994 2V11H1.99994V2C1.99994 0.89543 2.89537 0 3.99994 0H9.49994L13.9999 4.5Z" fill="#212529"/>
<path d="M1.52124 15.1752C1.46655 15.0287 1.43921 14.8734 1.43921 14.7094H2.20386C2.20776 14.8109 2.23218 14.9008 2.2771 14.9789C2.32202 15.0551 2.38354 15.1156 2.46167 15.1605C2.53979 15.2035 2.62964 15.225 2.7312 15.225C2.92065 15.225 3.06128 15.1703 3.15308 15.0609C3.24487 14.9516 3.29077 14.7963 3.29077 14.5951V11.85H4.08179V14.5746C4.08179 15.0141 3.96265 15.349 3.72437 15.5795C3.48804 15.81 3.15991 15.9252 2.73999 15.9252C2.52515 15.9252 2.33569 15.8939 2.17163 15.8314C2.00952 15.767 1.87378 15.6781 1.7644 15.5648C1.65698 15.4516 1.57593 15.3217 1.52124 15.1752Z" fill="#212529"/>
<path fill-rule="evenodd" clip-rule="evenodd" d="M5.49272 14.8207L5.17925 15.849H4.37944L5.72124 11.85H6.64702L7.98296 15.849H7.14214L6.82866 14.8207H5.49272ZM6.67046 14.2318L6.1812 12.6146H6.14604L5.65679 14.2318H6.67046Z" fill="#212529"/>
<path d="M9.01304 15.849H9.96519L11.2923 11.85H10.4134L9.52573 14.9877H9.48765L8.59116 11.85H7.67417L9.01304 15.849Z" fill="#212529"/>
<path fill-rule="evenodd" clip-rule="evenodd" d="M12.0998 14.8207L11.7863 15.849H10.9865L12.3283 11.85H13.2541L14.59 15.849H13.7492L13.4357 14.8207H12.0998ZM13.2775 14.2318L12.7882 12.6146H12.7531L12.2638 14.2318H13.2775Z" fill="#212529"/>
</svg>
