<svg width="16" height="16" viewBox="0 0 16 16" fill="none" xmlns="http://www.w3.org/2000/svg">
<path d="M6.95631 14.5342C7.02087 15.4699 7.90812 16.1929 8.8638 15.954L9.12522 15.8886C9.58765 15.773 9.99923 15.4325 10.1366 14.924C10.357 14.108 10.6699 12.4123 10.1994 10.4145C10.3353 10.4331 10.484 10.4506 10.6422 10.465C11.3547 10.5298 12.311 10.5363 13.1581 10.2539C13.6764 10.0811 14.1524 9.57362 14.3576 8.98157C14.5421 8.44918 14.5183 7.81969 14.1237 7.24827C14.1824 7.12991 14.2275 7.0064 14.262 6.88565C14.3392 6.61549 14.375 6.31843 14.375 6.02954C14.375 5.74065 14.3392 5.44359 14.262 5.17343C14.2235 5.03862 14.1718 4.90036 14.1026 4.76968C14.2709 4.38292 14.2091 3.95064 14.0993 3.62143C13.9915 3.29794 13.8121 2.98287 13.6107 2.72058C13.6647 2.56822 13.6875 2.40846 13.6875 2.2561C13.6875 1.95018 13.5982 1.63103 13.4341 1.34397C13.099 0.757424 12.4371 0.279541 11.5 0.279541H8C7.39536 0.279541 6.93094 0.360834 6.53434 0.497401C6.14176 0.632581 5.83632 0.815619 5.56354 0.981848L5.51594 1.01089C5.0118 1.31864 4.51741 1.62044 3.44792 1.73385C2.68233 1.81504 2 2.43446 2 3.27889V7.27988C2 8.13011 2.68549 8.71192 3.35693 8.89507C4.20585 9.12664 4.93091 9.68192 5.48879 10.3053C6.04895 10.9313 6.4031 11.5841 6.52757 11.9433C6.72691 12.5184 6.88374 13.4826 6.95631 14.5342Z" fill="#212529"/>
</svg>
