<svg width="16" height="16" viewBox="0 0 16 16" fill="none" xmlns="http://www.w3.org/2000/svg">
<path fill-rule="evenodd" clip-rule="evenodd" d="M8 1.314C12.4384 -3.24799 23.5343 4.7355 8 15C-7.53427 4.7355 3.56164 -3.24799 8 1.314Z" fill="#212529"/>
</svg>
