<svg width="16" height="16" viewBox="0 0 16 16" fill="none" xmlns="http://www.w3.org/2000/svg">
<path fill-rule="evenodd" clip-rule="evenodd" d="M5 2C5 1.72386 5.22386 1.5 5.5 1.5C6.36189 1.5 7.07254 1.787 7.56057 2.06588C7.73384 2.16489 7.88124 2.2641 8 2.35154C8.11876 2.2641 8.26616 2.16489 8.43943 2.06588C8.92746 1.787 9.63811 1.5 10.5 1.5C10.7761 1.5 11 1.72386 11 2C11 2.27614 10.7761 2.5 10.5 2.5C9.86189 2.5 9.32254 2.713 8.93557 2.93412C8.74814 3.04123 8.60054 3.14797 8.5 3.22783V7.5H9C9.27614 7.5 9.5 7.72386 9.5 8C9.5 8.27614 9.27614 8.5 9 8.5H8.5V12.7722C8.60054 12.852 8.74814 12.9588 8.93557 13.0659C9.32254 13.287 9.86189 13.5 10.5 13.5C10.7761 13.5 11 13.7239 11 14C11 14.2761 10.7761 14.5 10.5 14.5C9.63811 14.5 8.92746 14.213 8.43943 13.9341C8.26616 13.8351 8.11876 13.7359 8 13.6485C7.88124 13.7359 7.73384 13.8351 7.56057 13.9341C7.07254 14.213 6.36189 14.5 5.5 14.5C5.22386 14.5 5 14.2761 5 14C5 13.7239 5.22386 13.5 5.5 13.5C6.13811 13.5 6.67746 13.287 7.06443 13.0659C7.25186 12.9588 7.39946 12.852 7.5 12.7722V8.5H7C6.72386 8.5 6.5 8.27614 6.5 8C6.5 7.72386 6.72386 7.5 7 7.5H7.5V3.22783C7.39946 3.14797 7.25186 3.04123 7.06443 2.93412C6.67746 2.713 6.13811 2.5 5.5 2.5C5.22386 2.5 5 2.27614 5 2Z" fill="#212529"/>
<path d="M10 5H14C14.5523 5 15 5.44772 15 6V10C15 10.5523 14.5523 11 14 11H10V12H14C15.1046 12 16 11.1046 16 10V6C16 4.89543 15.1046 4 14 4H10V5Z" fill="#212529"/>
<path d="M6 5V4H2C0.895431 4 0 4.89543 0 6V10C0 11.1046 0.895431 12 2 12H6V11H2C1.44772 11 1 10.5523 1 10V6C1 5.44772 1.44772 5 2 5H6Z" fill="#212529"/>
</svg>
