<svg width="16" height="16" viewBox="0 0 16 16" fill="none" xmlns="http://www.w3.org/2000/svg">
<path d="M2.5 2C1.67157 2 1 2.67157 1 3.5V12H15V3.5C15 2.67157 14.3284 2 13.5 2H2.5Z" fill="#212529"/>
<path d="M0 12.5H16C16 13.3284 15.3284 14 14.5 14H1.5C0.671573 14 0 13.3284 0 12.5Z" fill="#212529"/>
</svg>
