<svg width="16" height="16" viewBox="0 0 16 16" fill="none" xmlns="http://www.w3.org/2000/svg">
<path d="M8 1C4.13401 1 1 4.13401 1 8V11H5V8C5 6.34315 6.34315 5 8 5C9.65685 5 11 6.34315 11 8V11H15V8C15 4.13401 11.866 1 8 1ZM15 12H11V15H15V12ZM5 12H1V15H5V12ZM0 8C0 3.58172 3.58172 0 8 0C12.4183 0 16 3.58172 16 8V16H10V8C10 6.89543 9.10457 6 8 6C6.89543 6 6 6.89543 6 8V16H0V8Z" fill="#212529"/>
</svg>
