<svg width="24" height="24" viewBox="0 0 24 24" fill="none" xmlns="http://www.w3.org/2000/svg">
<path d="M10.3109 8.00212C9.67434 8.01059 9.12418 8.12495 8.58767 8.37486C7.21 9.01445 6.41887 10.3572 6.41887 12.0515C6.41887 13.7457 7.20091 15.0546 8.58312 15.6645C8.95595 15.8297 9.32879 15.9187 9.89713 15.9822C10.1836 15.9949 10.4518 16.0119 10.7337 15.9822C11.3021 15.9187 11.6749 15.8297 12.0477 15.6645C13.43 15.0546 14.212 13.75 14.212 12.0515C14.212 10.3529 13.4163 9.01022 12.0432 8.37486C11.5021 8.12495 10.9565 8.00635 10.32 8.00212H10.3109ZM10.861 9.19659C11.6885 9.3999 12.2887 10.0946 12.5161 11.1111C12.6797 11.8227 12.6343 12.6445 12.4024 13.2925C12.0432 14.3006 11.2612 14.8724 10.3109 14.8597C9.36061 14.8682 8.57857 14.3006 8.21938 13.2925C7.9875 12.6445 7.94658 11.8227 8.10571 11.1111C8.3376 10.0988 8.93322 9.40414 9.76073 9.19659C10.1336 9.12458 10.5109 9.13729 10.8565 9.19659H10.861ZM4.82751 8.00212C4.37283 8.00212 4 8.34521 4 8.77302C4 9.20082 4.36829 9.54392 4.82751 9.54392C5.28673 9.54392 5.65502 9.20082 5.65502 8.77302C5.65502 8.34945 5.28673 8.00212 4.82751 8.00212ZM4.05456 10.3487V15.9991H5.60045V10.3487H4.05456ZM16.4535 15.9907C15.7943 15.8848 15.1577 15.8043 14.6167 15.5163C14.6076 15.512 14.9349 14.3769 14.9486 14.3557C15.817 14.631 17.0401 15.0165 17.863 14.6607C18.3132 14.4531 18.5314 14.0634 18.4587 13.6187C18.3768 13.1189 18.004 12.8266 16.9764 12.4708C15.8352 12.0726 15.1668 11.5855 14.8895 10.9502C14.7531 10.6367 14.7121 10.2386 14.7712 9.89125C14.9395 8.9255 15.7488 8.25203 16.9901 8.04448C17.3492 7.98518 18.1176 7.98518 18.495 8.04448C19.0406 8.12919 19.6635 8.3198 19.6635 8.40451C19.6635 8.48923 19.3453 9.48462 19.3271 9.5058C18.786 9.30672 18.1813 9.1627 17.6721 9.1627C16.9491 9.15423 16.1625 9.55239 16.3035 10.2598C16.4035 10.7045 16.7036 10.9205 17.8221 11.3399C18.6451 11.6533 19.0406 11.8651 19.3771 12.187C19.8454 12.6233 19.9955 13.1358 20 13.6483C20 14.0719 19.9591 14.271 19.7954 14.5971C19.3998 15.3934 18.5996 15.8509 17.3902 15.978C17.1628 16.0034 16.6309 16.0076 16.449 15.9864L16.4535 15.9907Z" fill="black"/>
</svg>
