<svg width="16" height="16" viewBox="0 0 16 16" fill="none" xmlns="http://www.w3.org/2000/svg">
<path d="M15.9846 8.50001H8.20711L2.70769 13.9994C4.11804 15.2445 5.97079 16 8 16C12.2504 16 15.7265 12.6854 15.9846 8.50001Z" fill="#212529"/>
<path d="M2.00058 13.2923C0.755509 11.882 0 10.0292 0 8.00001C0 3.74966 3.31464 0.273479 7.5 0.0153809V7.7929L2.00058 13.2923Z" fill="#212529"/>
<path d="M8.5 0.0153809V7.50001H15.9846C15.7367 3.48 12.52 0.263282 8.5 0.0153809Z" fill="#212529"/>
</svg>
