<svg width="16" height="16" viewBox="0 0 16 16" fill="none" xmlns="http://www.w3.org/2000/svg">
<path d="M4.99999 6.25C4.99999 6.66421 4.6642 7 4.24999 7C3.83578 7 3.49999 6.66421 3.49999 6.25C3.49999 5.83579 3.83578 5.5 4.24999 5.5C4.6642 5.5 4.99999 5.83579 4.99999 6.25Z" fill="#212529"/>
<path d="M6.13809 4.75355C6.70882 4.58956 7.32314 4.5 7.96425 4.5C8.63025 4.5 9.26734 4.59665 9.85667 4.77299C10.1212 4.85215 10.3999 4.70186 10.479 4.4373C10.5582 4.17275 10.4079 3.89411 10.1433 3.81496C9.46065 3.61068 8.72698 3.5 7.96425 3.5C7.23002 3.5 6.52273 3.60257 5.86192 3.79245C5.59652 3.86871 5.44319 4.14568 5.51945 4.41109C5.59571 4.67649 5.87269 4.82982 6.13809 4.75355Z" fill="#212529"/>
<path fill-rule="evenodd" clip-rule="evenodd" d="M7.96433 1.52734C4.98672 1.52734 2.39274 3.23104 1.64356 5.65234H1.09454C0.473743 5.65234 0.00295624 6.21207 0.109324 6.82368L0.363353 8.28436C0.488307 9.00284 1.1119 9.52734 1.84117 9.52734H2.1039C2.40326 10.0403 2.79181 10.5053 3.24945 10.9092L2.52042 13.3862C2.47592 13.5374 2.50531 13.7007 2.59971 13.8269C2.69411 13.953 2.84248 14.0273 3.00007 14.0273H5.00007C5.21148 14.0273 5.40004 13.8944 5.47104 13.6953L5.95289 12.3437C6.58754 12.5173 7.26369 12.6107 7.96433 12.6107C8.67081 12.6107 9.35238 12.5157 9.99162 12.3394L10.5352 13.7115C10.6108 13.9021 10.795 14.0273 11.0001 14.0273H13.0001C13.1584 14.0273 13.3075 13.9523 13.4018 13.8251C13.4961 13.6979 13.5245 13.5335 13.4785 13.3819L12.7167 10.8757C13.8099 9.89461 14.5 8.55873 14.5 7.06901C14.5 6.92359 14.4936 6.77976 14.4809 6.63767C14.7414 6.52776 14.9879 6.37196 15.185 6.19376C15.5 6.5 16 6.5 16 5.77739C16 6 15.5 6 15.5388 5.75071C15.5805 5.66935 15.6117 5.58403 15.6284 5.49586C15.6718 5.267 15.6127 5.03653 15.4268 4.85061C15.21 4.63386 14.9288 4.63943 14.7201 4.75324C14.5236 4.86041 14.3694 5.07111 14.345 5.31503C14.3207 5.55771 14.4274 5.79535 14.6651 5.96871C14.5841 6.02492 14.4969 6.07662 14.4064 6.1218C13.8723 3.45792 11.1223 1.52734 7.96433 1.52734ZM2.51649 6.25973C2.97077 4.1939 5.18312 2.52734 7.96433 2.52734C11.1096 2.52734 13.5 4.64121 13.5 7.06901C13.5 8.32349 12.8761 9.47853 11.8302 10.317C11.6707 10.4448 11.605 10.6569 11.6645 10.8525L12.3255 13.0273H11.3398L10.7506 11.5401C10.6519 11.291 10.3743 11.164 10.1213 11.2521C9.45985 11.4825 8.73128 11.6107 7.96433 11.6107C7.19738 11.6107 6.46882 11.4825 5.80739 11.2521C5.54796 11.1617 5.26421 11.2976 5.17195 11.5564L4.64751 13.0273H3.66844L4.30138 10.8769C4.35905 10.6809 4.29173 10.4696 4.13133 10.3431C3.57809 9.90679 3.13996 9.38157 2.84718 8.80192C2.76212 8.63353 2.58953 8.52734 2.40088 8.52734H1.84117C1.59808 8.52734 1.39022 8.35251 1.34857 8.11301L1.09454 6.65234H2.02816C2.26293 6.65234 2.46607 6.48901 2.51649 6.25973ZM15.1372 5.40269C15.1259 5.462 15.0944 5.53377 15.0388 5.6132C15.023 5.60495 15.0083 5.59659 14.9947 5.58819C14.8495 5.49838 14.8377 5.41297 14.8425 5.36478C14.8494 5.29619 14.8982 5.22564 14.9595 5.19218C15.0087 5.16536 15.04 5.17093 15.0732 5.20417C15.1373 5.26826 15.1511 5.32947 15.1372 5.40269Z" fill="#212529"/>
</svg>
