<svg width="16" height="16" viewBox="0 0 16 16" fill="none" xmlns="http://www.w3.org/2000/svg">
<path d="M5.33794 1.59084C4.25194 1.88522 3.15214 2.23325 2.50122 2.44565C2.32213 2.50409 2.19637 2.65917 2.17276 2.83638C1.61888 6.99289 2.89864 10.0267 4.42564 12.0243C5.1923 13.0272 6.02182 13.7691 6.71336 14.2567C7.0594 14.5007 7.36532 14.6772 7.60571 14.7904C7.72606 14.847 7.82448 14.8852 7.89924 14.9084C7.96081 14.9274 7.99248 14.9319 8 14.933C8.00753 14.9319 8.03919 14.9274 8.10076 14.9084C8.17552 14.8852 8.27395 14.847 8.3943 14.7904C8.63468 14.6772 8.9406 14.5007 9.28664 14.2567C9.97818 13.7691 10.8077 13.0272 11.5744 12.0243C13.1014 10.0267 14.3811 6.99289 13.8272 2.83638C13.8036 2.65917 13.6779 2.50409 13.4988 2.44565C12.8479 2.23325 11.7481 1.88522 10.6621 1.59084C9.5517 1.28985 8.53085 1.06667 8 1.06667C7.46915 1.06667 6.4483 1.28985 5.33794 1.59084ZM5.07166 0.559653C6.15738 0.265343 7.31051 0 8 0C8.68949 0 9.84262 0.265343 10.9283 0.559652C12.0384 0.860567 13.1568 1.21461 13.8147 1.42928C14.3637 1.60844 14.779 2.09359 14.8588 2.6921C15.4554 7.16942 14.072 10.4869 12.394 12.682C11.5582 13.7754 10.6498 14.5904 9.87691 15.1354C9.49076 15.4077 9.13287 15.6165 8.82896 15.7596C8.54814 15.8918 8.24771 16 8 16C7.7523 16 7.45186 15.8918 7.17105 15.7596C6.86713 15.6165 6.50924 15.4077 6.12309 15.1354C5.35024 14.5904 4.44183 13.7754 3.606 12.682C1.92804 10.4869 0.544608 7.16942 1.14123 2.69209C1.22098 2.09359 1.63625 1.60844 2.18528 1.42928C2.84316 1.21461 3.96156 0.860567 5.07166 0.559653Z" fill="#212529"/>
<path d="M6.14645 5.14645C6.34171 4.95118 6.65829 4.95118 6.85355 5.14645L8 6.29289L9.14645 5.14645C9.34171 4.95118 9.65829 4.95118 9.85355 5.14645C10.0488 5.34171 10.0488 5.65829 9.85355 5.85355L8.70711 7L9.85355 8.14645C10.0488 8.34171 10.0488 8.65829 9.85355 8.85355C9.65829 9.04882 9.34171 9.04882 9.14645 8.85355L8 7.70711L6.85355 8.85355C6.65829 9.04882 6.34171 9.04882 6.14645 8.85355C5.95118 8.65829 5.95118 8.34171 6.14645 8.14645L7.29289 7L6.14645 5.85355C5.95118 5.65829 5.95118 5.34171 6.14645 5.14645Z" fill="#212529"/>
</svg>
