<svg width="16" height="16" viewBox="0 0 16 16" fill="none" xmlns="http://www.w3.org/2000/svg">
<path d="M5 8.5C5 7.11929 6.11929 6 7.5 6H9V4.53376C9 4.3218 9.24721 4.20601 9.41005 4.3417L11.7695 6.30794C11.8895 6.40789 11.8895 6.59211 11.7695 6.69206L9.41005 8.65829C9.24721 8.79399 9 8.6782 9 8.46624V7H7.5C6.67157 7 6 7.67157 6 8.5V11H5V8.5Z" fill="#212529"/>
<path fill-rule="evenodd" clip-rule="evenodd" d="M6.95059 0.434678C7.53017 -0.144894 8.46984 -0.144892 9.04941 0.434679L15.5653 6.95059C16.1449 7.53017 16.1449 8.46984 15.5653 9.04941L9.04941 15.5653C8.46983 16.1449 7.53016 16.1449 6.95059 15.5653L0.434678 9.04941C-0.144894 8.46983 -0.144892 7.53016 0.434679 6.95059L6.95059 0.434678ZM8.3498 1.13428C8.15661 0.941093 7.84339 0.941093 7.6502 1.13428L1.13428 7.6502C0.941093 7.84339 0.941093 8.15661 1.13428 8.3498L7.6502 14.8657C7.84339 15.0589 8.15661 15.0589 8.3498 14.8657L14.8657 8.3498C15.0589 8.15661 15.0589 7.84339 14.8657 7.6502L8.3498 1.13428Z" fill="#212529"/>
</svg>
