<svg width="16" height="16" viewBox="0 0 16 16" fill="none" xmlns="http://www.w3.org/2000/svg">
<path d="M7 1.41422V2H2C1.44772 2 1 2.44772 1 3V5C1 5.55229 1.44772 6 2 6H7V7H2.5C2.18524 7 1.88885 7.1482 1.7 7.4L0.725001 8.7C0.591666 8.87778 0.591666 9.12222 0.725001 9.3L1.7 10.6C1.88885 10.8518 2.18524 11 2.5 11H7V16H9V11H14C14.5523 11 15 10.5523 15 10V8C15 7.44772 14.5523 7 14 7H9V6H13.5C13.8148 6 14.1111 5.85181 14.3 5.6L15.275 4.3C15.4083 4.12222 15.4083 3.87778 15.275 3.7L14.3 2.4C14.1111 2.1482 13.8148 2 13.5 2H9V1.41422C9 1.149 8.89464 0.894645 8.70711 0.707108C8.31658 0.316584 7.68342 0.316584 7.29289 0.707108C7.10536 0.894645 7 1.149 7 1.41422ZM13.5 3L14.25 4L13.5 5H2V3H13.5ZM14 8V10H2.5L1.75 9L2.5 8H14Z" fill="#212529"/>
</svg>
