<svg width="16" height="16" viewBox="0 0 16 16" fill="none" xmlns="http://www.w3.org/2000/svg">
<path d="M6.73126 0L2 9.12505H4.78753L6.73126 5.49689L8.65937 9.12505H11.425L6.73126 0Z" fill="#212529"/>
<path d="M11.425 9.12505L10.0531 11.8813L8.65937 9.12505L6.54688 9.12506L10.0531 16L13.5375 9.12506L11.425 9.12505Z" fill="#212529"/>
</svg>
