<svg width="16" height="16" viewBox="0 0 16 16" fill="none" xmlns="http://www.w3.org/2000/svg">
<path d="M7 2.49999C7 2.27143 6.84502 2.07196 6.62354 2.01549C6.40207 1.95902 6.1705 2.05991 6.06105 2.26056L0.0610523 13.2606C-0.02345 13.4155 -0.0200302 13.6035 0.0700507 13.7552C0.160132 13.907 0.323532 14 0.5 14H6.5C6.77614 14 7 13.7761 7 13.5V2.49999Z" fill="#212529"/>
<path d="M9.37646 2.01549C9.59793 1.95902 9.8295 2.05991 9.93895 2.26056L15.9389 13.2606C16.0234 13.4155 16.02 13.6035 15.9299 13.7552C15.8399 13.907 15.6765 14 15.5 14H9.5C9.22386 14 9 13.7761 9 13.5V2.49999C9 2.27143 9.15498 2.07196 9.37646 2.01549ZM10 4.46082V13H14.6577L10 4.46082Z" fill="#212529"/>
</svg>
