<svg width="16" height="16" viewBox="0 0 16 16" fill="none" xmlns="http://www.w3.org/2000/svg">
<path d="M5 3C2.23858 3 0 5.23858 0 8C0 10.7614 2.23858 13 5 13H11C13.7614 13 16 10.7614 16 8C16 5.23858 13.7614 3 11 3H5ZM11 12C8.79086 12 7 10.2091 7 8C7 5.79086 8.79086 4 11 4C13.2091 4 15 5.79086 15 8C15 10.2091 13.2091 12 11 12Z" fill="#212529"/>
</svg>
