<svg width="16" height="16" viewBox="0 0 16 16" fill="none" xmlns="http://www.w3.org/2000/svg">
<path d="M0.0357726 12.3143C0.138329 12.0579 0.429315 11.9332 0.685706 12.0358L2.44292 12.7386C2.80054 12.8817 3.19948 12.8817 3.5571 12.7386L4.57153 12.3329C5.16756 12.0945 5.83246 12.0945 6.42849 12.3329L7.44292 12.7386C7.80054 12.8817 8.19948 12.8817 8.5571 12.7386L9.57153 12.3329C10.1676 12.0945 10.8325 12.0945 11.4285 12.3329L12.4429 12.7386C12.8005 12.8817 13.1995 12.8817 13.5571 12.7386L15.3143 12.0358C15.5707 11.9332 15.8617 12.0579 15.9642 12.3143C16.0668 12.5707 15.9421 12.8617 15.6857 12.9642L13.9285 13.6671C13.3325 13.9055 12.6676 13.9055 12.0715 13.6671L11.0571 13.2613C10.6995 13.1183 10.3005 13.1183 9.94292 13.2613L8.92849 13.6671C8.33246 13.9055 7.66756 13.9055 7.07153 13.6671L6.0571 13.2613C5.69948 13.1183 5.30054 13.1183 4.94292 13.2613L3.92849 13.6671C3.33246 13.9055 2.66756 13.9055 2.07153 13.6671L0.314316 12.9642C0.0579238 12.8617 -0.0667841 12.5707 0.0357726 12.3143ZM0.0357726 14.3143C0.138329 14.0579 0.429315 13.9332 0.685706 14.0358L2.44292 14.7386C2.80054 14.8817 3.19948 14.8817 3.5571 14.7386L4.57153 14.3329C5.16756 14.0945 5.83246 14.0945 6.42849 14.3329L7.44292 14.7386C7.80054 14.8817 8.19948 14.8817 8.5571 14.7386L9.57153 14.3329C10.1676 14.0945 10.8325 14.0945 11.4285 14.3329L12.4429 14.7386C12.8005 14.8817 13.1995 14.8817 13.5571 14.7386L15.3143 14.0358C15.5707 13.9332 15.8617 14.0579 15.9642 14.3143C16.0668 14.5707 15.9421 14.8617 15.6857 14.9642L13.9285 15.6671C13.3325 15.9055 12.6676 15.9055 12.0715 15.6671L11.0571 15.2613C10.6995 15.1183 10.3005 15.1183 9.94292 15.2613L8.92849 15.6671C8.33246 15.9055 7.66756 15.9055 7.07153 15.6671L6.0571 15.2613C5.69948 15.1183 5.30054 15.1183 4.94292 15.2613L3.92849 15.6671C3.33246 15.9055 2.66756 15.9055 2.07153 15.6671L0.314316 14.9642C0.0579238 14.8617 -0.0667841 14.5707 0.0357726 14.3143Z" fill="#212529"/>
<path d="M2.66253 8.08017C2.20577 9.14332 1.66773 10.1777 0.820101 10.8841C0.607962 11.0609 0.29268 11.0322 0.115899 10.8201C-0.0608823 10.6079 -0.0322188 10.2926 0.17992 10.1159C0.832289 9.57223 1.29425 8.73166 1.74374 7.68543C1.88457 7.35764 2.02543 7.00574 2.1711 6.64181C2.47275 5.88821 2.79504 5.08308 3.18037 4.33382C3.76366 3.19964 4.52962 2.10538 5.70087 1.29909C6.87695 0.489467 8.41801 0 10.5 0C11.9627 0 13.0116 0.400005 13.6791 1.05798C14.3483 1.71756 14.5724 2.57649 14.4978 3.35991C14.4243 4.13138 14.0568 4.87593 13.4784 5.32473C12.9534 5.73208 12.2724 5.87611 11.5744 5.59471C10.9247 6.23693 10.6672 7.27353 10.8643 8.20948C11.076 9.21519 11.7837 9.99998 13 9.99998H15.5C15.7762 9.99998 16 10.2238 16 10.5C16 10.7761 15.7762 11 15.5 11H13C11.2163 11 10.174 9.78477 9.88574 8.4155C9.65388 7.31417 9.8909 6.04243 10.6441 5.13108L10.5 5.05903L9.72361 5.44721C9.58285 5.51759 9.41717 5.51759 9.27641 5.44721L8.27641 4.94723C8.02942 4.82373 7.9293 4.5234 8.05279 4.27641C8.17629 4.02942 8.47662 3.9293 8.72361 4.05279L9.50001 4.44098L10.2764 4.05279C10.4172 3.98241 10.5829 3.98242 10.7236 4.0528L11.7236 4.5528C11.7351 4.55852 11.7463 4.56468 11.7573 4.57126C12.1967 4.83496 12.5671 4.76605 12.8654 4.53465C13.1932 4.28032 13.4507 3.80612 13.5023 3.2651C13.5527 2.73601 13.4017 2.18869 12.9771 1.77015C12.5509 1.34999 11.7873 1 10.5 1C8.58201 1 7.24807 1.44803 6.2679 2.12278C5.2829 2.80086 4.61136 3.73786 4.06965 4.79117C3.70483 5.50055 3.41552 6.22441 3.12502 6.95122C2.97471 7.32728 2.82409 7.70413 2.66253 8.08017Z" fill="#212529"/>
</svg>
