<svg width="16" height="16" viewBox="0 0 16 16" fill="none" xmlns="http://www.w3.org/2000/svg">
<path d="M10.7063 3.29374C9.83481 3.1014 8.92923 3 7.99996 3C5.2587 3 2.72353 3.8824 0.663013 5.37865C0.421541 5.554 0.404336 5.90437 0.615351 6.11539C0.793894 6.29393 1.07842 6.31191 1.28326 6.16427C3.17293 4.80234 5.49274 4 7.99996 4C8.63034 4 9.24887 4.05072 9.8517 4.1483L10.7063 3.29374Z" fill="#212529"/>
<path d="M8 6C6.09495 6 4.32082 6.56074 2.83375 7.52619C2.57741 7.69261 2.55487 8.05491 2.77098 8.27102C2.94366 8.4437 3.21767 8.46769 3.42334 8.33603C4.46133 7.67154 5.65329 7.22646 6.93378 7.06622L8 6Z" fill="#212529"/>
<path d="M10.5962 7.40381L11.3808 6.6192C12.0108 6.85917 12.6087 7.16424 13.1662 7.52619C13.4225 7.69261 13.445 8.05491 13.2289 8.27102C13.0563 8.4437 12.7822 8.46769 12.5766 8.33603C11.9654 7.94476 11.3008 7.62957 10.5962 7.40381Z" fill="#212529"/>
<path d="M8.00006 10L8.93351 9.06653C9.64849 9.16937 10.3259 9.38857 10.9458 9.70432C11.2308 9.84946 11.2722 10.2278 11.046 10.4539L11.031 10.469C10.8706 10.6293 10.6234 10.6595 10.4198 10.5595C9.68958 10.2012 8.86831 10 8.00006 10Z" fill="#212529"/>
<path d="M12.9047 5.09537L13.6521 4.34787C14.2422 4.64754 14.8054 4.99267 15.3369 5.37865C15.5784 5.554 15.5956 5.90437 15.3846 6.11539C15.206 6.29393 14.9215 6.31191 14.7167 6.16427C14.1492 5.75533 13.5431 5.39683 12.9047 5.09537Z" fill="#212529"/>
<path d="M9.0205 11.7796C9.25787 11.9207 9.25588 12.2441 9.06062 12.4393L8.35351 13.1464C8.15825 13.3417 7.84167 13.3417 7.6464 13.1464L6.9393 12.4393C6.74403 12.2441 6.74204 11.9207 6.97941 11.7796C7.27818 11.602 7.62716 11.5 7.99996 11.5C8.37276 11.5 8.72173 11.602 9.0205 11.7796Z" fill="#212529"/>
<path d="M13.375 1.875C13.5821 1.66789 13.9179 1.66789 14.125 1.875C14.3321 2.0821 14.3321 2.41789 14.125 2.625L3.375 13.375C3.1679 13.5821 2.83211 13.5821 2.62501 13.375C2.4179 13.1679 2.4179 12.8321 2.62501 12.625L13.375 1.875Z" fill="#212529"/>
</svg>
